^F:\WOUTER\MIJN DOCUMENTEN\LAPTOPSYNC\BACHELORPROJECT\C++\GRAPH COLOURING APPROXIMATOR\GRAPH COLOURING APPROXIMATOR\X64\RELEASE\GRAPH COLOURING APPROXIMATOR.OBJ|F:\WOUTER\MIJN DOCUMENTEN\LAPTOPSYNC\BACHELORPROJECT\C++\GRAPH COLOURING APPROXIMATOR\GRAPH COLOURING APPROXIMATOR\X64\RELEASE\STDAFX.OBJ
F:\WOUTER\MIJN DOCUMENTEN\LAPTOPSYNC\BACHELORPROJECT\C++\GRAPH COLOURING APPROXIMATOR\X64\RELEASE\GRAPH COLOURING APPROXIMATOR.EXE
F:\WOUTER\MIJN DOCUMENTEN\LAPTOPSYNC\BACHELORPROJECT\C++\GRAPH COLOURING APPROXIMATOR\X64\RELEASE\GRAPH COLOURING APPROXIMATOR.IPDB
F:\WOUTER\MIJN DOCUMENTEN\LAPTOPSYNC\BACHELORPROJECT\C++\GRAPH COLOURING APPROXIMATOR\X64\RELEASE\GRAPH COLOURING APPROXIMATOR.IOBJ
F:\WOUTER\MIJN DOCUMENTEN\LAPTOPSYNC\BACHELORPROJECT\C++\GRAPH COLOURING APPROXIMATOR\X64\RELEASE\GRAPH COLOURING APPROXIMATOR.PDB
