\relax 
\@writefile{loe}{\contentsline {opghand}{\numberline {\let \autodot \@empty }Exercise\thmtformatoptarg {2.3.1}}{1}}
\@writefile{loe}{\contentsline {opghand}{\numberline {\let \autodot \@empty }Exercise\thmtformatoptarg {2.3.4}}{1}}
\@writefile{loe}{\contentsline {opghand}{\numberline {\let \autodot \@empty }Exercise\thmtformatoptarg {2.3.8}}{1}}
\@writefile{loe}{\contentsline {opghand}{\numberline {\let \autodot \@empty }Exercise\thmtformatoptarg {2.4.3}}{2}}
\@writefile{loe}{\contentsline {opghand}{\numberline {\let \autodot \@empty }Exercise\thmtformatoptarg {2.4.4}}{2}}
