\relax 
\@writefile{loe}{\contentsline {lemhand}{\numberline {\let \autodot \@empty }Lemma\thmtformatoptarg {3.8.4}}{1}}
\@writefile{loe}{\contentsline {opghand}{\numberline {\let \autodot \@empty }Exercise\thmtformatoptarg {3.11.2A}}{1}}
\@writefile{loe}{\contentsline {opghand}{\numberline {\let \autodot \@empty }Exercise\thmtformatoptarg {3}}{2}}
