\relax 
\@writefile{loe}{\contentsline {opghand}{\numberline {\let \autodot \@empty }Exercise\thmtformatoptarg {2.8.1}}{1}}
\@writefile{loe}{\contentsline {opghand}{\numberline {\let \autodot \@empty }Exercise}{2}}
\@writefile{loe}{\contentsline {opghand}{\numberline {\let \autodot \@empty }Exercise}{3}}
\@writefile{loe}{\contentsline {opghand}{\numberline {\let \autodot \@empty }Exercise\thmtformatoptarg {3.5.1}}{4}}
