\relax 
\@writefile{loe}{\contentsline {opghand}{\numberline {\let \autodot \@empty }Lemma\thmtformatoptarg {3.7.3 i)}}{1}}
\@writefile{loe}{\contentsline {opghand}{\numberline {\let \autodot \@empty }Lemma\thmtformatoptarg {3.7.5}}{1}}
\@writefile{loe}{\contentsline {opghand}{\numberline {\let \autodot \@empty }Lemma\thmtformatoptarg {3.7.6 i)}}{2}}
\@writefile{loe}{\contentsline {opghand}{\numberline {\let \autodot \@empty }Lemma\thmtformatoptarg {3.7.6 ii)}}{2}}
