\relax 
\catcode `"\active 
\babel@aux{dutch}{}
\@writefile{loe}{\contentsline {opghand}{\numberline {\let \autodot \@empty }Exercise\thmtformatoptarg {1.8.11}}{1}}
\@writefile{loe}{\contentsline {opghand}{\numberline {\let \autodot \@empty }Exercise\thmtformatoptarg {2.5.8}}{2}}
