\relax 
\providecommand\hyper@newdestlabel[2]{}
\catcode `"\active 
\providecommand\HyperFirstAtBeginDocument{\AtBeginDocument}
\HyperFirstAtBeginDocument{\ifx\hyper@anchor\@undefined
\global\let\oldcontentsline\contentsline
\gdef\contentsline#1#2#3#4{\oldcontentsline{#1}{#2}{#3}}
\global\let\oldnewlabel\newlabel
\gdef\newlabel#1#2{\newlabelxx{#1}#2}
\gdef\newlabelxx#1#2#3#4#5#6{\oldnewlabel{#1}{{#2}{#3}}}
\AtEndDocument{\ifx\hyper@anchor\@undefined
\let\contentsline\oldcontentsline
\let\newlabel\oldnewlabel
\fi}
\fi}
\global\let\hyper@last\relax 
\gdef\HyperFirstAtBeginDocument#1{#1}
\providecommand\HyField@AuxAddToFields[1]{}
\providecommand\HyField@AuxAddToCoFields[2]{}
\select@language{dutch}
\@writefile{toc}{\select@language{dutch}}
\@writefile{lof}{\select@language{dutch}}
\@writefile{lot}{\select@language{dutch}}
\@writefile{toc}{\contentsline {section}{\numberline {1}Inleiding}{1}{section.1}}
\@writefile{toc}{\contentsline {section}{\numberline {2}De meetkundige rij}{1}{section.2}}
\@writefile{loe}{\contentsline {mythe}{\numberline {1}Stelling\thmtformatoptarg {Fourier}}{1}{mythe.1}}
\newlabel{Fourier}{{1}{1}{Fourier}{mythe.1}{}}
\@writefile{loe}{\contentsline {mydef}{\numberline {1}Definitie}{2}{mydef.1}}
\@writefile{loe}{\contentsline {mythe}{\numberline {2}Stelling}{2}{mythe.2}}
\newlabel{Ergodic}{{2}{2}{}{mythe.2}{}}
\@writefile{loe}{\contentsline {mylem}{\numberline {1}Lemma}{2}{mylem.1}}
\newlabel{Rotatie}{{1}{2}{}{mylem.1}{}}
\@writefile{toc}{\contentsline {section}{\numberline {3}Equipartitie van polynomen}{3}{section.3}}
\@writefile{loe}{\contentsline {mydef}{\numberline {2}Definitie}{3}{mydef.2}}
\@writefile{loe}{\contentsline {mythe}{\numberline {3}Stelling\thmtformatoptarg {Furstenberg}}{3}{mythe.3}}
\newlabel{Furstenberg}{{3}{3}{Furstenberg}{mythe.3}{}}
\@writefile{loe}{\contentsline {mylem}{\numberline {2}Lemma}{3}{mylem.2}}
\newlabel{lemmameteens}{{2}{3}{}{mylem.2}{}}
\newlabel{coefficientvergelijking}{{1}{4}{Equipartitie van polynomen}{equation.3.1}{}}
\@writefile{loe}{\contentsline {mydef}{\numberline {3}Definitie}{4}{mydef.3}}
\@writefile{loe}{\contentsline {mythe}{\numberline {4}Stelling\thmtformatoptarg {Weyl}}{4}{mythe.4}}
\@writefile{toc}{\contentsline {section}{\numberline {4}Conclusie}{5}{section.4}}
