\BOOKMARK [1][-]{section.1}{Inleiding}{}% 1
\BOOKMARK [1][-]{section.2}{De meetkundige rij}{}% 2
\BOOKMARK [1][-]{section.3}{Equipartitie van polynomen}{}% 3
\BOOKMARK [1][-]{section.4}{Conclusie}{}% 4
