\relax 
\providecommand\hyper@newdestlabel[2]{}
\catcode `"\active 
\providecommand\HyperFirstAtBeginDocument{\AtBeginDocument}
\HyperFirstAtBeginDocument{\ifx\hyper@anchor\@undefined
\global\let\oldcontentsline\contentsline
\gdef\contentsline#1#2#3#4{\oldcontentsline{#1}{#2}{#3}}
\global\let\oldnewlabel\newlabel
\gdef\newlabel#1#2{\newlabelxx{#1}#2}
\gdef\newlabelxx#1#2#3#4#5#6{\oldnewlabel{#1}{{#2}{#3}}}
\AtEndDocument{\ifx\hyper@anchor\@undefined
\let\contentsline\oldcontentsline
\let\newlabel\oldnewlabel
\fi}
\fi}
\global\let\hyper@last\relax 
\gdef\HyperFirstAtBeginDocument#1{#1}
\providecommand\HyField@AuxAddToFields[1]{}
\providecommand\HyField@AuxAddToCoFields[2]{}
\select@language{dutch}
\@writefile{toc}{\select@language{dutch}}
\@writefile{lof}{\select@language{dutch}}
\@writefile{lot}{\select@language{dutch}}
\@writefile{loe}{\contentsline {mythe}{\numberline {1}Stelling}{1}{mythe.1}}
\@writefile{loe}{\contentsline {mylem}{\numberline {1}Lemma}{1}{mylem.1}}
\@writefile{loe}{\contentsline {mythe}{\numberline {2}Stelling\thmtformatoptarg {Fourier}}{2}{mythe.2}}
\newlabel{Fourier}{{2}{2}{Fourier}{mythe.2}{}}
\@writefile{loe}{\contentsline {mythe}{\numberline {3}Stelling\thmtformatoptarg {Furstenberg}}{2}{mythe.3}}
\newlabel{Furstenberg}{{3}{2}{Furstenberg}{mythe.3}{}}
\@writefile{loe}{\contentsline {mylem}{\numberline {2}Lemma}{2}{mylem.2}}
\newlabel{lemmameteens}{{2}{2}{}{mylem.2}{}}
\newlabel{coefficientvergelijking}{{1}{3}{}{equation.0.1}{}}
\@writefile{loe}{\contentsline {mythe}{\numberline {4}Stelling\thmtformatoptarg {Weyl}}{3}{mythe.4}}
