\relax 
\providecommand\hyper@newdestlabel[2]{}
\catcode `"\active 
\providecommand\HyperFirstAtBeginDocument{\AtBeginDocument}
\HyperFirstAtBeginDocument{\ifx\hyper@anchor\@undefined
\global\let\oldcontentsline\contentsline
\gdef\contentsline#1#2#3#4{\oldcontentsline{#1}{#2}{#3}}
\global\let\oldnewlabel\newlabel
\gdef\newlabel#1#2{\newlabelxx{#1}#2}
\gdef\newlabelxx#1#2#3#4#5#6{\oldnewlabel{#1}{{#2}{#3}}}
\AtEndDocument{\ifx\hyper@anchor\@undefined
\let\contentsline\oldcontentsline
\let\newlabel\oldnewlabel
\fi}
\fi}
\global\let\hyper@last\relax 
\gdef\HyperFirstAtBeginDocument#1{#1}
\providecommand\HyField@AuxAddToFields[1]{}
\providecommand\HyField@AuxAddToCoFields[2]{}
\@ifundefined{amsrefs@bibcite}{}{\let\bibcite\amsrefs@bibcite}
\bibstyle{amsrn}
\select@language{dutch}
\@writefile{toc}{\select@language{dutch}}
\@writefile{lof}{\select@language{dutch}}
\@writefile{lot}{\select@language{dutch}}
\@writefile{toc}{\contentsline {chapter}{\numberline {1}Inleiding}{3}{chapter.1}}
\@writefile{lof}{\addvspace {10\p@ }}
\@writefile{lot}{\addvspace {10\p@ }}
\@writefile{toc}{\contentsline {section}{\numberline {1.1}Artikel: Wanneer is $n^2$ een som van kwadraten?}{3}{section.1.1}}
\@writefile{toc}{\contentsline {section}{\numberline {1.2}Pythagorese drietallen}{3}{section.1.2}}
\@writefile{toc}{\contentsline {section}{\numberline {1.3}Getallen als som van 5 kwadraten}{3}{section.1.3}}
\@writefile{toc}{\contentsline {chapter}{\numberline {2}Mathematica}{4}{chapter.2}}
\@writefile{lof}{\addvspace {10\p@ }}
\@writefile{lot}{\addvspace {10\p@ }}
\@writefile{toc}{\contentsline {section}{\numberline {2.1}Pythagorese drietallen}{4}{section.2.1}}
\@writefile{toc}{\contentsline {section}{\numberline {2.2}Getallen als som van 5 kwadraten}{5}{section.2.2}}
\@writefile{toc}{\contentsline {chapter}{\numberline {3}Conclusie}{7}{chapter.3}}
\@writefile{lof}{\addvspace {10\p@ }}
\@writefile{lot}{\addvspace {10\p@ }}
\@writefile{toc}{\contentsline {section}{\numberline {3.1}Pythagorese drietallen}{7}{section.3.1}}
\@writefile{toc}{\contentsline {section}{\numberline {3.2}Getallen als som van 5 kwadraten}{7}{section.3.2}}
