^F:\WOUTER\MIJN DOCUMENTEN\LAPTOPSYNC\BACHELORPROJECT\CPP\GRAPH COLOURING APPROXIMATOR (CMAKE)\GRAPH_COLOURING_APPROXIMATOR.CPP
F:\WOUTER\MIJN DOCUMENTEN\LAPTOPSYNC\BACHELORPROJECT\CPP\GRAPH COLOURING APPROXIMATOR (CMAKE)\GRAPH_COLOURING_APPROXIMATOR.DIR\DEBUG\VC140.PDB
F:\WOUTER\MIJN DOCUMENTEN\LAPTOPSYNC\BACHELORPROJECT\CPP\GRAPH COLOURING APPROXIMATOR (CMAKE)\GRAPH_COLOURING_APPROXIMATOR.DIR\DEBUG\GRAPH_COLOURING_APPROXIMATOR.OBJ
