^F:\WOUTER\MIJN DOCUMENTEN\LAPTOPSYNC\BACHELORPROJECT\CPP\GRAPH COLOURING APPROXIMATOR (CMAKE)\GRAPH_COLOURING_APPROXIMATOR.DIR\DEBUG\GRAPH_COLOURING_APPROXIMATOR.OBJ
F:\WOUTER\MIJN DOCUMENTEN\LAPTOPSYNC\BACHELORPROJECT\CPP\GRAPH COLOURING APPROXIMATOR (CMAKE)\DEBUG\GRAPH_COLOURING_APPROXIMATOR.ILK
F:\WOUTER\MIJN DOCUMENTEN\LAPTOPSYNC\BACHELORPROJECT\CPP\GRAPH COLOURING APPROXIMATOR (CMAKE)\DEBUG\GRAPH_COLOURING_APPROXIMATOR.EXE
F:\WOUTER\MIJN DOCUMENTEN\LAPTOPSYNC\BACHELORPROJECT\CPP\GRAPH COLOURING APPROXIMATOR (CMAKE)\DEBUG\GRAPH_COLOURING_APPROXIMATOR.PDB
