\BOOKMARK [0][-]{chapter.1}{Inleiding}{}% 1
\BOOKMARK [1][-]{section.1.1}{Artikel: Wanneer is n2 een som van kwadraten?}{chapter.1}% 2
\BOOKMARK [1][-]{section.1.2}{Pythagorese drietallen}{chapter.1}% 3
\BOOKMARK [1][-]{section.1.3}{Getallen als som van 5 kwadraten}{chapter.1}% 4
\BOOKMARK [0][-]{chapter.2}{Mathematica}{}% 5
\BOOKMARK [1][-]{section.2.1}{Pythagorese drietallen}{chapter.2}% 6
\BOOKMARK [1][-]{section.2.2}{Getallen als som van 5 kwadraten}{chapter.2}% 7
\BOOKMARK [0][-]{chapter.3}{Conclusie}{}% 8
\BOOKMARK [1][-]{section.3.1}{Pythagorese drietallen}{chapter.3}% 9
\BOOKMARK [1][-]{section.3.2}{Getallen als som van 5 kwadraten}{chapter.3}% 10
