\relax 
\providecommand\hyper@newdestlabel[2]{}
\providecommand\HyperFirstAtBeginDocument{\AtBeginDocument}
\HyperFirstAtBeginDocument{\ifx\hyper@anchor\@undefined
\global\let\oldcontentsline\contentsline
\gdef\contentsline#1#2#3#4{\oldcontentsline{#1}{#2}{#3}}
\global\let\oldnewlabel\newlabel
\gdef\newlabel#1#2{\newlabelxx{#1}#2}
\gdef\newlabelxx#1#2#3#4#5#6{\oldnewlabel{#1}{{#2}{#3}}}
\AtEndDocument{\ifx\hyper@anchor\@undefined
\let\contentsline\oldcontentsline
\let\newlabel\oldnewlabel
\fi}
\fi}
\global\let\hyper@last\relax 
\gdef\HyperFirstAtBeginDocument#1{#1}
\providecommand\HyField@AuxAddToFields[1]{}
\providecommand\HyField@AuxAddToCoFields[2]{}
\catcode `"\active 
\select@language{dutch}
\@writefile{toc}{\select@language{dutch}}
\@writefile{lof}{\select@language{dutch}}
\@writefile{lot}{\select@language{dutch}}
\@writefile{nav}{\headcommand {\slideentry {0}{0}{1}{1/1}{}{0}}}
\@writefile{nav}{\headcommand {\beamer@framepages {1}{1}}}
\@writefile{nav}{\headcommand {\slideentry {0}{0}{2}{2/4}{}{0}}}
\@writefile{nav}{\headcommand {\beamer@framepages {2}{4}}}
\@writefile{nav}{\headcommand {\slideentry {0}{0}{3}{5/7}{}{0}}}
\@writefile{nav}{\headcommand {\beamer@framepages {5}{7}}}
\@writefile{nav}{\headcommand {\slideentry {0}{0}{4}{8/9}{}{0}}}
\@writefile{nav}{\headcommand {\beamer@framepages {8}{9}}}
\@writefile{toc}{\beamer@sectionintoc {1}{Overzicht Bewijs}{10}{0}{1}}
\@writefile{nav}{\headcommand {\sectionentry {1}{Overzicht Bewijs}{10}{Overzicht Bewijs}{0}}}
\@writefile{nav}{\headcommand {\beamer@sectionpages {1}{9}}}
\@writefile{nav}{\headcommand {\beamer@subsectionpages {1}{9}}}
\@writefile{nav}{\headcommand {\slideentry {1}{0}{1}{10/15}{}{0}}}
\@writefile{nav}{\headcommand {\beamer@framepages {10}{15}}}
\@writefile{toc}{\beamer@sectionintoc {2}{Vinden van een Waardering}{16}{0}{2}}
\@writefile{nav}{\headcommand {\sectionentry {2}{Vinden van een Waardering}{16}{Vinden van een Waardering}{0}}}
\@writefile{nav}{\headcommand {\beamer@sectionpages {10}{15}}}
\@writefile{nav}{\headcommand {\beamer@subsectionpages {10}{15}}}
\@writefile{nav}{\headcommand {\slideentry {2}{0}{1}{16/16}{}{0}}}
\@writefile{nav}{\headcommand {\beamer@framepages {16}{16}}}
\@writefile{nav}{\headcommand {\slideentry {2}{0}{2}{17/22}{}{0}}}
\@writefile{nav}{\headcommand {\beamer@framepages {17}{22}}}
\@writefile{nav}{\headcommand {\slideentry {2}{0}{3}{23/25}{}{0}}}
\@writefile{nav}{\headcommand {\beamer@framepages {23}{25}}}
\@writefile{nav}{\headcommand {\slideentry {2}{0}{4}{26/26}{}{0}}}
\@writefile{nav}{\headcommand {\beamer@framepages {26}{26}}}
\@writefile{toc}{\beamer@sectionintoc {3}{Kleuren van het Vierkant}{27}{0}{3}}
\@writefile{nav}{\headcommand {\sectionentry {3}{Kleuren van het Vierkant}{27}{Kleuren van het Vierkant}{0}}}
\@writefile{nav}{\headcommand {\beamer@sectionpages {16}{26}}}
\@writefile{nav}{\headcommand {\beamer@subsectionpages {16}{26}}}
\@writefile{nav}{\headcommand {\slideentry {3}{0}{1}{27/34}{}{0}}}
\@writefile{nav}{\headcommand {\beamer@framepages {27}{34}}}
\@writefile{nav}{\headcommand {\slideentry {3}{0}{2}{35/39}{}{0}}}
\@writefile{nav}{\headcommand {\beamer@framepages {35}{39}}}
\@writefile{nav}{\headcommand {\slideentry {3}{0}{3}{40/40}{}{0}}}
\@writefile{nav}{\headcommand {\beamer@framepages {40}{40}}}
\@writefile{toc}{\beamer@sectionintoc {4}{Oppervlakte van een (Regenboog)Driehoek}{41}{0}{4}}
\@writefile{nav}{\headcommand {\sectionentry {4}{Oppervlakte van een (Regenboog)Driehoek}{41}{Oppervlakte van een (Regenboog)Driehoek}{0}}}
\@writefile{nav}{\headcommand {\beamer@sectionpages {27}{40}}}
\@writefile{nav}{\headcommand {\beamer@subsectionpages {27}{40}}}
\@writefile{nav}{\headcommand {\slideentry {4}{0}{1}{41/42}{}{0}}}
\@writefile{nav}{\headcommand {\beamer@framepages {41}{42}}}
\@writefile{nav}{\headcommand {\slideentry {4}{0}{2}{43/45}{}{0}}}
\@writefile{nav}{\headcommand {\beamer@framepages {43}{45}}}
\@writefile{nav}{\headcommand {\slideentry {4}{0}{3}{46/48}{}{0}}}
\@writefile{nav}{\headcommand {\beamer@framepages {46}{48}}}
\@writefile{nav}{\headcommand {\slideentry {4}{0}{4}{49/50}{}{0}}}
\@writefile{nav}{\headcommand {\beamer@framepages {49}{50}}}
\@writefile{nav}{\headcommand {\slideentry {4}{0}{5}{51/53}{}{0}}}
\@writefile{nav}{\headcommand {\beamer@framepages {51}{53}}}
\@writefile{nav}{\headcommand {\slideentry {4}{0}{6}{54/54}{}{0}}}
\@writefile{nav}{\headcommand {\beamer@framepages {54}{54}}}
\@writefile{nav}{\headcommand {\slideentry {4}{0}{7}{55/57}{}{0}}}
\@writefile{nav}{\headcommand {\beamer@framepages {55}{57}}}
\@writefile{nav}{\headcommand {\slideentry {4}{0}{8}{58/58}{}{0}}}
\@writefile{nav}{\headcommand {\beamer@framepages {58}{58}}}
\@writefile{toc}{\beamer@sectionintoc {5}{Vinden van een Regenboogdriehoek}{59}{0}{5}}
\@writefile{nav}{\headcommand {\sectionentry {5}{Vinden van een Regenboogdriehoek}{59}{Vinden van een Regenboogdriehoek}{0}}}
\@writefile{nav}{\headcommand {\beamer@sectionpages {41}{58}}}
\@writefile{nav}{\headcommand {\beamer@subsectionpages {41}{58}}}
\@writefile{nav}{\headcommand {\slideentry {5}{0}{1}{59/62}{}{0}}}
\@writefile{nav}{\headcommand {\beamer@framepages {59}{62}}}
\@writefile{nav}{\headcommand {\slideentry {5}{0}{2}{63/65}{}{0}}}
\@writefile{nav}{\headcommand {\beamer@framepages {63}{65}}}
\@writefile{nav}{\headcommand {\slideentry {5}{0}{3}{66/67}{}{0}}}
\@writefile{nav}{\headcommand {\beamer@framepages {66}{67}}}
\@writefile{nav}{\headcommand {\slideentry {5}{0}{4}{68/70}{}{0}}}
\@writefile{nav}{\headcommand {\beamer@framepages {68}{70}}}
\@writefile{nav}{\headcommand {\slideentry {5}{0}{5}{71/71}{}{0}}}
\@writefile{nav}{\headcommand {\beamer@framepages {71}{71}}}
\@writefile{nav}{\headcommand {\slideentry {5}{0}{6}{72/72}{}{0}}}
\@writefile{nav}{\headcommand {\beamer@framepages {72}{72}}}
\@writefile{nav}{\headcommand {\beamer@partpages {1}{72}}}
\@writefile{nav}{\headcommand {\beamer@subsectionpages {59}{72}}}
\@writefile{nav}{\headcommand {\beamer@sectionpages {59}{72}}}
\@writefile{nav}{\headcommand {\beamer@documentpages {72}}}
\@writefile{nav}{\headcommand {\def \inserttotalframenumber {26}}}
