\relax 
\@writefile{toc}{\contentsline {subsection}{\numberline {0.1}Opgave 12.10}{1}}
\@writefile{toc}{\contentsline {subsection}{\numberline {0.2}Opgave 12.14}{2}}
\@writefile{toc}{\contentsline {subsection}{\numberline {0.3}Opgave 12.17}{2}}
