\relax 
\@writefile{toc}{\contentsline {subsection}{\numberline {0.1}Opgave 13.14}{1}}
\@writefile{toc}{\contentsline {subsection}{\numberline {0.2}Opgave 13.15}{2}}
\@writefile{toc}{\contentsline {subsection}{\numberline {0.3}Opgave 13.16}{3}}
\@writefile{toc}{\contentsline {subsection}{\numberline {0.4}Opgave 13.17}{4}}
