\relax 
\@writefile{toc}{\contentsline {subsection}{\numberline {0.1}Opgave 14.10}{1}}
\@writefile{toc}{\contentsline {subsection}{\numberline {0.2}Opgave 14.12}{1}}
\@writefile{toc}{\contentsline {subsection}{\numberline {0.3}Opgave 14.13}{2}}
\@writefile{toc}{\contentsline {subsection}{\numberline {0.4}Opgave 14.14}{2}}
