\relax 
\@writefile{toc}{\contentsline {subsection}{\numberline {0.1}Opgave 11.13}{1}}
\@writefile{toc}{\contentsline {subsection}{\numberline {0.2}Opgave 11.14}{1}}
\@writefile{toc}{\contentsline {subsection}{\numberline {0.3}Opgave 6.21}{2}}
