\relax 
\catcode `"\active 
\select@language{dutch}
\@writefile{toc}{\select@language{dutch}}
\@writefile{lof}{\select@language{dutch}}
\@writefile{lot}{\select@language{dutch}}
\@writefile{loe}{\contentsline {opghand}{\numberline {\let \autodot \@empty }Opgave\thmtformatoptarg {12.11}}{1}}
\@writefile{loe}{\contentsline {opghand}{\numberline {\let \autodot \@empty }Opgave\thmtformatoptarg {12.19}}{2}}
\@writefile{loe}{\contentsline {opghand}{\numberline {\let \autodot \@empty }Opgave\thmtformatoptarg {12.20}}{3}}
