\relax 
\catcode `"\active 
\select@language{dutch}
\@writefile{toc}{\select@language{dutch}}
\@writefile{lof}{\select@language{dutch}}
\@writefile{lot}{\select@language{dutch}}
\@writefile{loe}{\contentsline {opghand}{\numberline {\let \autodot \@empty }Opgave\thmtformatoptarg {9.3}}{1}}
\@writefile{loe}{\contentsline {opghand}{\numberline {\let \autodot \@empty }Opgave\thmtformatoptarg {9.7}}{1}}
\@writefile{loe}{\contentsline {opghand}{\numberline {\let \autodot \@empty }Opgave\thmtformatoptarg {9.12}}{2}}
\@writefile{loe}{\contentsline {opghand}{\numberline {\let \autodot \@empty }Opgave\thmtformatoptarg {9.14}}{2}}
\@writefile{loe}{\contentsline {opghand}{\numberline {\let \autodot \@empty }Opgave\thmtformatoptarg {9.16}}{3}}
