\relax 
\catcode `"\active 
\select@language{dutch}
\@writefile{toc}{\select@language{dutch}}
\@writefile{lof}{\select@language{dutch}}
\@writefile{lot}{\select@language{dutch}}
\@writefile{loe}{\contentsline {opghand}{\numberline {\let \autodot \@empty }Opgave\thmtformatoptarg {7.7}}{1}}
\@writefile{loe}{\contentsline {opghand}{\numberline {\let \autodot \@empty }Opgave\thmtformatoptarg {7.15}}{1}}
\@writefile{loe}{\contentsline {opghand}{\numberline {\let \autodot \@empty }Opgave\thmtformatoptarg {7.17}}{1}}
\@writefile{loe}{\contentsline {opghand}{\numberline {\let \autodot \@empty }Opgave\thmtformatoptarg {7.18}}{2}}
