\relax 
\catcode `"\active 
\select@language{dutch}
\@writefile{toc}{\select@language{dutch}}
\@writefile{lof}{\select@language{dutch}}
\@writefile{lot}{\select@language{dutch}}
\@input{Algemeen/colofonuitwerkingen.aux}
\@input{Algemeen/uitw_inhoud.aux}
\newlabel{question}{{6.1}{10}}
\@writefile{lot}{\contentsline {table}{\numberline {1}{\ignorespaces \relax \fontsize  {10}{12}\selectfont  \abovedisplayskip 10\p@ plus2\p@ minus5\p@ \abovedisplayshortskip \z@ plus3\p@ \belowdisplayshortskip 6\p@ plus3\p@ minus3\p@ \def \leftmargin \leftmargini \parsep 4.5\p@ plus2\p@ minus\p@ \topsep 9\p@ plus3\p@ minus5\p@ \itemsep 4.5\p@ plus2\p@ minus\p@ {\leftmargin \leftmargini \topsep 6\p@ plus2\p@ minus2\p@ \parsep 3\p@ plus2\p@ minus\p@ \itemsep \parsep }\belowdisplayskip \abovedisplayskip An example solution for~\textup  {\hbox {\mathsurround \z@ \normalfont  (\ignorespaces \ref  {question}\unskip \@@italiccorr )}}. Each day we number the groups \texttt  {A}, \texttt  {B}, \texttt  {C}, \texttt  {D} and \texttt  {E}.}}{10}}
\newlabel{tabelvoorbeeld}{{1}{10}}
\newlabel{i}{{ai}{10}}
\newlabel{ii}{{aii}{10}}
\newlabel{bewering}{{6.2}{11}}
\@writefile{lof}{\contentsline {figure}{\numberline {10.1}{\ignorespaces Inversions in the word \textsf  {MISSISSIPPI}}}{17}}
\newlabel{fig:inversions}{{10.1}{17}}
\@writefile{toc}{\contentsline {paragraph}{Questions}{17}}
\newlabel{eq:surplus}{{10.1}{18}}
