\relax 
\catcode `"\active 
\babel@aux{dutch}{}
\@writefile{loe}{\contentsline {opghand}{\numberline {\let \autodot \@empty }Opgave\thmtformatoptarg {1.1}}{1}}
\@writefile{loe}{\contentsline {opghand}{\numberline {\let \autodot \@empty }Opgave\thmtformatoptarg {1.6}}{2}}
