\relax 
\providecommand\hyper@newdestlabel[2]{}
\catcode `"\active 
\providecommand\HyperFirstAtBeginDocument{\AtBeginDocument}
\HyperFirstAtBeginDocument{\ifx\hyper@anchor\@undefined
\global\let\oldcontentsline\contentsline
\gdef\contentsline#1#2#3#4{\oldcontentsline{#1}{#2}{#3}}
\global\let\oldnewlabel\newlabel
\gdef\newlabel#1#2{\newlabelxx{#1}#2}
\gdef\newlabelxx#1#2#3#4#5#6{\oldnewlabel{#1}{{#2}{#3}}}
\AtEndDocument{\ifx\hyper@anchor\@undefined
\let\contentsline\oldcontentsline
\let\newlabel\oldnewlabel
\fi}
\fi}
\global\let\hyper@last\relax 
\gdef\HyperFirstAtBeginDocument#1{#1}
\providecommand\HyField@AuxAddToFields[1]{}
\providecommand\HyField@AuxAddToCoFields[2]{}
\select@language{dutch}
\@writefile{toc}{\select@language{dutch}}
\@writefile{lof}{\select@language{dutch}}
\@writefile{lot}{\select@language{dutch}}
\citation{appelhaken}
\bibcite{appelhaken}{1}
\@writefile{toc}{\contentsline {section}{\numberline {1}Inleiding}{2}{section.1}}
\@writefile{toc}{\contentsline {section}{\numberline {2}Definities}{2}{section.2}}
\@writefile{toc}{\contentsline {section}{\numberline {3}Lemma's}{2}{section.3}}
\newlabel{sec:lemmas}{{3}{2}{Lemma's}{section.3}{}}
\@writefile{toc}{\contentsline {section}{\numberline {4}Bewijs}{2}{section.4}}
