\select@language {dutch}
\contentsline {section}{\numberline {1}Inleiding}{2}{section.1}
\contentsline {section}{\numberline {2}Definities}{2}{section.2}
\contentsline {section}{\numberline {3}Lemma's}{2}{section.3}
\contentsline {section}{\numberline {4}Bewijs}{2}{section.4}
