\relax 
\@writefile{lof}{\contentsline {figure}{\numberline {10.1}{\ignorespaces Inversions in the word \textsf  {MISSISSIPPI}}}{10}}
\newlabel{fig:inversions}{{10.1}{10}}
\@writefile{toc}{\contentsline {paragraph}{Questions}{10}}
\@setckpt{Opgaven/opg_verhoeff}{
\setcounter{page}{11}
\setcounter{equation}{0}
\setcounter{enumi}{2}
\setcounter{enumii}{2}
\setcounter{enumiii}{0}
\setcounter{enumiv}{0}
\setcounter{footnote}{1}
\setcounter{mpfootnote}{0}
\setcounter{part}{0}
\setcounter{section}{0}
\setcounter{subsection}{0}
\setcounter{subsubsection}{0}
\setcounter{paragraph}{0}
\setcounter{subparagraph}{0}
\setcounter{figure}{1}
\setcounter{table}{1}
\setcounter{parentequation}{0}
\setcounter{AM@survey}{0}
\setcounter{opgave}{10}
\setcounter{float@type}{4}
}
