\relax 
\newlabel{question}{{6.1}{6}}
\@writefile{lot}{\contentsline {table}{\numberline {1}{\ignorespaces \relax \fontsize  {10}{12}\selectfont  \abovedisplayskip 10\p@ plus2\p@ minus5\p@ \abovedisplayshortskip \z@ plus3\p@ \belowdisplayshortskip 6\p@ plus3\p@ minus3\p@ \def \leftmargin \leftmargini \parsep 4.5\p@ plus2\p@ minus\p@ \topsep 9\p@ plus3\p@ minus5\p@ \itemsep 4.5\p@ plus2\p@ minus\p@ {\leftmargin \leftmargini \topsep 6\p@ plus2\p@ minus2\p@ \parsep 3\p@ plus2\p@ minus\p@ \itemsep \parsep }\belowdisplayskip \abovedisplayskip An example solution for~\textup  {\hbox {\mathsurround \z@ \normalfont  (\ignorespaces \ref  {question}\unskip \@@italiccorr )}}. Each day we number the groups \texttt  {A}, \texttt  {B}, \texttt  {C}, \texttt  {D} and \texttt  {E}.}}{6}}
\newlabel{tabelvoorbeeld}{{1}{6}}
\newlabel{i}{{ai}{6}}
\newlabel{ii}{{aii}{6}}
\@setckpt{Opgaven/opg_polak}{
\setcounter{page}{7}
\setcounter{equation}{1}
\setcounter{enumi}{2}
\setcounter{enumii}{2}
\setcounter{enumiii}{0}
\setcounter{enumiv}{0}
\setcounter{footnote}{1}
\setcounter{mpfootnote}{0}
\setcounter{part}{0}
\setcounter{section}{0}
\setcounter{subsection}{0}
\setcounter{subsubsection}{0}
\setcounter{paragraph}{0}
\setcounter{subparagraph}{0}
\setcounter{figure}{0}
\setcounter{table}{1}
\setcounter{parentequation}{0}
\setcounter{AM@survey}{0}
\setcounter{opgave}{6}
\setcounter{float@type}{4}
}
