\relax 
\catcode `"\active 
\babel@aux{dutch}{}
\@writefile{lot}{\contentsline {table}{\numberline {1}{\ignorespaces Ranglijst binnen mededinging teams}}{1}}
\@writefile{lot}{\contentsline {table}{\numberline {2}{\ignorespaces Ranglijst buiten mededinging teams}}{2}}
