\relax 
\catcode `"\active 
\@input{Opgaven/opg_lenstra.aux}
\babel@aux{dutch}{}
\@input{Opgaven/opg_bommel.aux}
\@input{Opgaven/opg_buys.aux}
\@input{Opgaven/opg_dahmen.aux}
\@input{Opgaven/opg_staps.aux}
\@input{Opgaven/opg_polak.aux}
\@input{Opgaven/opg_harold.aux}
\@input{Opgaven/opg_ittersum.aux}
\@input{Opgaven/opg_cambie.aux}
\@input{Opgaven/opg_verhoeff.aux}
\@input{Opgaven/opg_viresh.aux}
\@input{Opgaven/opg_tendijck.aux}
