\relax 
\catcode `"\active 
\babel@aux{dutch}{}
\newlabel{question}{{6.1}{6}}
\@writefile{lot}{\contentsline {table}{\numberline {1}{\ignorespaces \relax \fontsize  {10}{12}\selectfont  \abovedisplayskip 10\p@ plus2\p@ minus5\p@ \abovedisplayshortskip \z@ plus3\p@ \belowdisplayshortskip 6\p@ plus3\p@ minus3\p@ \def \leftmargin \leftmargini \parsep 4.5\p@ plus2\p@ minus\p@ \topsep 9\p@ plus3\p@ minus5\p@ \itemsep 4.5\p@ plus2\p@ minus\p@ {\leftmargin \leftmargini \topsep 6\p@ plus2\p@ minus2\p@ \parsep 3\p@ plus2\p@ minus\p@ \itemsep \parsep }\belowdisplayskip \abovedisplayskip Een voorbeeld van een oplossing voor~\textup  {\hbox {\mathsurround \z@ \normalfont  (\ignorespaces \ref  {question}\unskip \@@italiccorr )}}. Iedere dag nummeren we de groepen met \texttt  {A}, \texttt  {B}, \texttt  {C}, \texttt  {D} en \texttt  {E}.}}{6}}
\newlabel{tabelvoorbeeld}{{1}{6}}
\newlabel{i}{{ai}{6}}
\newlabel{ii}{{aii}{6}}
\newlabel{bewering}{{6.2}{7}}
\@writefile{lof}{\contentsline {figure}{\numberline {10.1}{\ignorespaces Inversies in het woord \textsf  {MISSISSIPPI}}}{13}}
\newlabel{fig:inversions}{{10.1}{13}}
\newlabel{eq:surplus}{{10.1}{14}}
