\relax 
\@writefile{loe}{\contentsline {opghand}{\numberline {\let \autodot \@empty }Exercise\thmtformatoptarg {2}}{1}}
\@writefile{loe}{\contentsline {opghand}{\numberline {\let \autodot \@empty }Exercise\thmtformatoptarg {3}}{1}}
