\relax 
\providecommand\hyper@newdestlabel[2]{}
\providecommand\HyperFirstAtBeginDocument{\AtBeginDocument}
\HyperFirstAtBeginDocument{\ifx\hyper@anchor\@undefined
\global\let\oldcontentsline\contentsline
\gdef\contentsline#1#2#3#4{\oldcontentsline{#1}{#2}{#3}}
\global\let\oldnewlabel\newlabel
\gdef\newlabel#1#2{\newlabelxx{#1}#2}
\gdef\newlabelxx#1#2#3#4#5#6{\oldnewlabel{#1}{{#2}{#3}}}
\AtEndDocument{\ifx\hyper@anchor\@undefined
\let\contentsline\oldcontentsline
\let\newlabel\oldnewlabel
\fi}
\fi}
\global\let\hyper@last\relax 
\gdef\HyperFirstAtBeginDocument#1{#1}
\providecommand\HyField@AuxAddToFields[1]{}
\providecommand\HyField@AuxAddToCoFields[2]{}
\catcode `"\active 
\babel@aux{dutch}{}
\newlabel{question}{{1}{1}{}{equation.0.1}{}}
\@writefile{lot}{\contentsline {table}{\numberline {1}{\ignorespaces \relax \fontsize  {10.95}{13.6}\selectfont  \abovedisplayskip 11\p@ plus3\p@ minus6\p@ \abovedisplayshortskip \z@ plus3\p@ \belowdisplayshortskip 6.5\p@ plus3.5\p@ minus3\p@ \def \leftmargin \leftmargini \parsep 5\p@ plus2.5\p@ minus\p@ \topsep 10\p@ plus4\p@ minus6\p@ \itemsep 5\p@ plus2.5\p@ minus\p@ {\leftmargin \leftmargini \topsep 9\p@ plus3\p@ minus5\p@ \parsep 4.5\p@ plus2\p@ minus\p@ \itemsep \parsep }\belowdisplayskip \abovedisplayskip Een voorbeeld van een oplossing voor~\textup  {\hbox {\mathsurround \z@ \normalfont  (\ignorespaces \ref  {question}\unskip \@@italiccorr )}}. Iedere dag nummeren we de groepen met \texttt  {A}, \texttt  {B}, \texttt  {C}, \texttt  {D} en \texttt  {E}.}}{1}{table.1}}
\newlabel{tabelvoorbeeld}{{1}{1}{\small Een voorbeeld van een oplossing voor~\eqref {question}. Iedere dag nummeren we de groepen met \texttt {A}, \texttt {B}, \texttt {C}, \texttt {D} en \texttt {E}}{table.1}{}}
\newlabel{i}{{ai}{1}{}{Item.2}{}}
\newlabel{ii}{{aii}{1}{}{Item.3}{}}
\newlabel{bewering}{{2}{2}{}{equation.0.2}{}}
