#Command:  
^F:\WOUTER\MIJN DOCUMENTEN\LAPTOPSYNC\BACHELORPROJECT\CPP\GRAPH COLOURING APPROXIMATOR (CMAKE)\CMAKEFILES\3.11.3\COMPILERIDC\DEBUG\CMAKECCOMPILERID.OBJ
C:\USERS\WOUTER\APPDATA\LOCAL\MICROSOFT\APPLICATIONINSIGHTS\VSTELAIF-312CBD79-9DBB-4C48-A7DA-3CC2A931CB70\39F5AF916919417785A33DFB525EC67B.TMP
