#Command:  
^F:\WOUTER\MIJN DOCUMENTEN\LAPTOPSYNC\BACHELORPROJECT\CPP\GRAPH COLOURING APPROXIMATOR (CMAKE)\CMAKEFILES\3.11.3\COMPILERIDC\DEBUG\CMAKECCOMPILERID.OBJ
C:\WINDOWS\ASSEMBLY\NATIVEIMAGES_V4.0.30319_32\SYSTEM.CONFIGURATION\45BE38B7AA257C1B1AD2A9ACD527587E\SYSTEM.CONFIGURATION.NI.DLL
C:\WINDOWS\ASSEMBLY\NATIVEIMAGES_V4.0.30319_32\SYSTEM.CONFIGURATION\45BE38B7AA257C1B1AD2A9ACD527587E\SYSTEM.CONFIGURATION.NI.DLL.AUX
C:\WINDOWS\ASSEMBLY\NATIVEIMAGES_V4.0.30319_32\SYSTEM.XML\E62BEAC983EC7251E0B3E9700818C994\SYSTEM.XML.NI.DLL
C:\WINDOWS\ASSEMBLY\NATIVEIMAGES_V4.0.30319_32\SYSTEM.XML\E62BEAC983EC7251E0B3E9700818C994\SYSTEM.XML.NI.DLL.AUX
C:\WINDOWS\MICROSOFT.NET\ASSEMBLY\GAC_MSIL\SYSTEM.DATA.SQLXML\V4.0_4.0.0.0__B77A5C561934E089\SYSTEM.DATA.SQLXML.DLL
C:\WINDOWS\MICROSOFT.NET\FRAMEWORK\V4.0.30319\CONFIG\MACHINE.CONFIG
C:\WINDOWS\MICROSOFT.NET\FRAMEWORK\V4.0.30319\NL\MSCORRC.DLL
C:\WINDOWS\ASSEMBLY\GAC_MSIL\SYSTEM.RESOURCES\2.0.0.0_AR_B77A5C561934E089\SYSTEM.RESOURCES.DLL
C:\WINDOWS\ASSEMBLY\GAC_MSIL\SYSTEM.RESOURCES\2.0.0.0_NL_B77A5C561934E089\SYSTEM.RESOURCES.DLL
C:\WINDOWS\MICROSOFT.NET\ASSEMBLY\GAC_MSIL\SYSTEM.RESOURCES\V4.0_4.0.0.0_NL_B77A5C561934E089\SYSTEM.RESOURCES.DLL
C:\WINDOWS\ASSEMBLY\GAC_MSIL\SYSTEM.RESOURCES\2.0.0.0_AR_B77A5C561934E089\SYSTEM.RESOURCES.DLL
C:\WINDOWS\ASSEMBLY\GAC_MSIL\SYSTEM.RESOURCES\2.0.0.0_NL_B77A5C561934E089\SYSTEM.RESOURCES.DLL
C:\WINDOWS\MICROSOFT.NET\ASSEMBLY\GAC_MSIL\SYSTEM.RESOURCES\V4.0_4.0.0.0_NL_B77A5C561934E089\SYSTEM.RESOURCES.DLL
C:\WINDOWS\MICROSOFT.NET\ASSEMBLY\GAC_MSIL\SYSTEM\V4.0_4.0.0.0__B77A5C561934E089\SYSTEM.DLL
C:\WINDOWS\MICROSOFT.NET\ASSEMBLY\GAC_MSIL\SYSTEM.NET.HTTP\V4.0_4.0.0.0__B03F5F7F11D50A3A\SYSTEM.NET.HTTP.DLL
C:\WINDOWS\ASSEMBLY\NATIVEIMAGES_V4.0.30319_32\SYSTEM.NET.HTTP\33F72FF7095065885F7D2E3708DA88A6\SYSTEM.NET.HTTP.NI.DLL
C:\WINDOWS\ASSEMBLY\NATIVEIMAGES_V4.0.30319_32\SYSTEM.NET.HTTP\33F72FF7095065885F7D2E3708DA88A6\SYSTEM.NET.HTTP.NI.DLL.AUX
C:\WINDOWS\MICROSOFT.NET\ASSEMBLY\GAC_MSIL\SYSTEM.NET.HTTP\V4.0_4.0.0.0__B03F5F7F11D50A3A\SYSTEM.NET.HTTP.DLL
C:\WINDOWS\MICROSOFT.NET\ASSEMBLY\GAC_MSIL\SYSTEM.NET.HTTP.RESOURCES\V4.0_4.0.0.0_NL_B03F5F7F11D50A3A\SYSTEM.NET.HTTP.RESOURCES.DLL
