#Command:  
^F:\WOUTER\MIJN DOCUMENTEN\LAPTOPSYNC\BACHELORPROJECT\CPP\GRAPH COLOURING APPROXIMATOR (CMAKE)\CMAKEFILES\3.11.3\COMPILERIDC\DEBUG\CMAKECCOMPILERID.OBJ
E:\PROGRAMS\MICROSOFT VISUAL STUDIO 14.0\VC\BIN\VCTIP.EXE
C:\PROGRAMDATA\MICROSOFT\WINDOWS\WER\TEMP
C:\WINDOWS\REGISTRATION\R000000000015.CLB
C:\PROGRAMDATA\MICROSOFT\WINDOWS\WER\REPORTQUEUE
C:\PROGRAMDATA\MICROSOFT\WINDOWS\WER\REPORTQUEUE\APPCRASH_MINECRAFT.EXE_408EC860257CD119F97EBB164FE8F786BC14449_DA78E660_11C50B9C\REPORT.WER
C:\PROGRAMDATA\MICROSOFT\WINDOWS\WER\REPORTQUEUE\APPCRASH_TEXWORKS.EXE_2B95856C6D1DFB9ABE1355775567F9E892231AC2_22D0C7E3_18CFA404\REPORT.WER
C:\PROGRAMDATA\MICROSOFT\WINDOWS\WER\REPORTQUEUE\APPCRASH_THIS WAR OF MINE_D5DD567A8FF0967F98EC1482E0C2416F2CC7A_49A2C3A2_19B730AF\REPORT.WER
C:\PROGRAMDATA\MICROSOFT\WINDOWS\WER\REPORTQUEUE\APPCRASH_THIS WAR OF MINE_E220F1E763DF819230A433E42E981BF3E696783E_49A2C3A2_2C2B33EB\REPORT.WER
C:\PROGRAMDATA\MICROSOFT\WINDOWS\WER\REPORTQUEUE\APPCRASH_THIS WAR OF MINE_E2696E3D9F8D97FA332683D58C5148EEF5F466B_49A2C3A2_20AB0E33\REPORT.WER
C:\PROGRAMDATA\MICROSOFT\WINDOWS\WER\REPORTQUEUE\APPHANG_JAVAW.EXE_6450BF72935FA3819943A1F1AEE5598779CB5394_2D7D03FC_1B59042A\REPORT.WER
C:\PROGRAMDATA\MICROSOFT\WINDOWS\WER\REPORTQUEUE\NONCRITICAL_ONEDRIVESETUP.EX_9AA75965975BE34E3B51FA121877573010E7D2_00000000_2DCB439E\REPORT.WER
C:\PROGRAMDATA\MICROSOFT\WINDOWS\WER\REPORTQUEUE\NONCRITICAL_ONEDRIVESETUP.EX_9AA75965975BE34E3B51FA121877573010E7D2_00000000_2E9B4C78\REPORT.WER
