^F:\WOUTER\MIJN DOCUMENTEN\LAPTOPSYNC\BACHELORPROJECT\CPP\GRAPH COLOURING APPROXIMATOR (CMAKE)\GRAPH_COLOURING_APPROXIMATOR.CPP
C:\WINDOWS\GLOBALIZATION\SORTING\SORTDEFAULT.NLS
E:\PROGRAMS\MICROSOFT VISUAL STUDIO 14.0\VC\BIN\1033\CLUI.DLL
C:\WINDOWS\SYSTEM32\TZRES.DLL
E:\PROGRAMS\MICROSOFT VISUAL STUDIO 14.0\VC\INCLUDE\LIST
E:\PROGRAMS\MICROSOFT VISUAL STUDIO 14.0\VC\INCLUDE\XMEMORY
E:\PROGRAMS\MICROSOFT VISUAL STUDIO 14.0\VC\INCLUDE\XMEMORY0
E:\PROGRAMS\MICROSOFT VISUAL STUDIO 14.0\VC\INCLUDE\CSTDINT
E:\PROGRAMS\MICROSOFT VISUAL STUDIO 14.0\VC\INCLUDE\YVALS.H
E:\PROGRAMS\MICROSOFT VISUAL STUDIO 14.0\VC\INCLUDE\XKEYCHECK.H
E:\PROGRAMS\MICROSOFT VISUAL STUDIO 14.0\VC\INCLUDE\CRTDEFS.H
E:\PROGRAMS\MICROSOFT VISUAL STUDIO 14.0\VC\INCLUDE\VCRUNTIME.H
E:\PROGRAMS\MICROSOFT VISUAL STUDIO 14.0\VC\INCLUDE\SAL.H
E:\PROGRAMS\MICROSOFT VISUAL STUDIO 14.0\VC\INCLUDE\CONCURRENCYSAL.H
E:\PROGRAMS\MICROSOFT VISUAL STUDIO 14.0\VC\INCLUDE\VADEFS.H
C:\PROGRAM FILES (X86)\WINDOWS KITS\10\INCLUDE\10.0.10240.0\UCRT\CORECRT.H
E:\PROGRAMS\MICROSOFT VISUAL STUDIO 14.0\VC\INCLUDE\USE_ANSI.H
E:\PROGRAMS\MICROSOFT VISUAL STUDIO 14.0\VC\INCLUDE\STDINT.H
E:\PROGRAMS\MICROSOFT VISUAL STUDIO 14.0\VC\INCLUDE\CSTDLIB
C:\PROGRAM FILES (X86)\WINDOWS KITS\10\INCLUDE\10.0.10240.0\UCRT\STDLIB.H
C:\PROGRAM FILES (X86)\WINDOWS KITS\10\INCLUDE\10.0.10240.0\UCRT\CORECRT_MALLOC.H
C:\PROGRAM FILES (X86)\WINDOWS KITS\10\INCLUDE\10.0.10240.0\UCRT\CORECRT_SEARCH.H
C:\PROGRAM FILES (X86)\WINDOWS KITS\10\INCLUDE\10.0.10240.0\UCRT\STDDEF.H
C:\PROGRAM FILES (X86)\WINDOWS KITS\10\INCLUDE\10.0.10240.0\UCRT\CORECRT_WSTDLIB.H
E:\PROGRAMS\MICROSOFT VISUAL STUDIO 14.0\VC\INCLUDE\LIMITS.H
E:\PROGRAMS\MICROSOFT VISUAL STUDIO 14.0\VC\INCLUDE\LIMITS
E:\PROGRAMS\MICROSOFT VISUAL STUDIO 14.0\VC\INCLUDE\YMATH.H
E:\PROGRAMS\MICROSOFT VISUAL STUDIO 14.0\VC\INCLUDE\CFLOAT
C:\PROGRAM FILES (X86)\WINDOWS KITS\10\INCLUDE\10.0.10240.0\UCRT\FLOAT.H
E:\PROGRAMS\MICROSOFT VISUAL STUDIO 14.0\VC\INCLUDE\CLIMITS
E:\PROGRAMS\MICROSOFT VISUAL STUDIO 14.0\VC\INCLUDE\CMATH
C:\PROGRAM FILES (X86)\WINDOWS KITS\10\INCLUDE\10.0.10240.0\UCRT\MATH.H
E:\PROGRAMS\MICROSOFT VISUAL STUDIO 14.0\VC\INCLUDE\XTGMATH.H
E:\PROGRAMS\MICROSOFT VISUAL STUDIO 14.0\VC\INCLUDE\XTR1COMMON
E:\PROGRAMS\MICROSOFT VISUAL STUDIO 14.0\VC\INCLUDE\CWCHAR
C:\PROGRAM FILES (X86)\WINDOWS KITS\10\INCLUDE\10.0.10240.0\UCRT\WCHAR.H
C:\PROGRAM FILES (X86)\WINDOWS KITS\10\INCLUDE\10.0.10240.0\UCRT\CORECRT_MEMCPY_S.H
C:\PROGRAM FILES (X86)\WINDOWS KITS\10\INCLUDE\10.0.10240.0\UCRT\ERRNO.H
E:\PROGRAMS\MICROSOFT VISUAL STUDIO 14.0\VC\INCLUDE\VCRUNTIME_STRING.H
C:\PROGRAM FILES (X86)\WINDOWS KITS\10\INCLUDE\10.0.10240.0\UCRT\CORECRT_WCONIO.H
C:\PROGRAM FILES (X86)\WINDOWS KITS\10\INCLUDE\10.0.10240.0\UCRT\CORECRT_STDIO_CONFIG.H
C:\PROGRAM FILES (X86)\WINDOWS KITS\10\INCLUDE\10.0.10240.0\UCRT\CORECRT_WCTYPE.H
C:\PROGRAM FILES (X86)\WINDOWS KITS\10\INCLUDE\10.0.10240.0\UCRT\CORECRT_WDIRECT.H
C:\PROGRAM FILES (X86)\WINDOWS KITS\10\INCLUDE\10.0.10240.0\UCRT\CORECRT_WIO.H
C:\PROGRAM FILES (X86)\WINDOWS KITS\10\INCLUDE\10.0.10240.0\UCRT\CORECRT_SHARE.H
C:\PROGRAM FILES (X86)\WINDOWS KITS\10\INCLUDE\10.0.10240.0\UCRT\CORECRT_WPROCESS.H
C:\PROGRAM FILES (X86)\WINDOWS KITS\10\INCLUDE\10.0.10240.0\UCRT\CORECRT_WSTDIO.H
C:\PROGRAM FILES (X86)\WINDOWS KITS\10\INCLUDE\10.0.10240.0\UCRT\CORECRT_WSTRING.H
C:\PROGRAM FILES (X86)\WINDOWS KITS\10\INCLUDE\10.0.10240.0\UCRT\CORECRT_WTIME.H
C:\PROGRAM FILES (X86)\WINDOWS KITS\10\INCLUDE\10.0.10240.0\UCRT\SYS\STAT.H
C:\PROGRAM FILES (X86)\WINDOWS KITS\10\INCLUDE\10.0.10240.0\UCRT\SYS\TYPES.H
E:\PROGRAMS\MICROSOFT VISUAL STUDIO 14.0\VC\INCLUDE\XSTDDEF
E:\PROGRAMS\MICROSOFT VISUAL STUDIO 14.0\VC\INCLUDE\CSTDDEF
E:\PROGRAMS\MICROSOFT VISUAL STUDIO 14.0\VC\INCLUDE\INITIALIZER_LIST
E:\PROGRAMS\MICROSOFT VISUAL STUDIO 14.0\VC\INCLUDE\NEW
E:\PROGRAMS\MICROSOFT VISUAL STUDIO 14.0\VC\INCLUDE\EXCEPTION
E:\PROGRAMS\MICROSOFT VISUAL STUDIO 14.0\VC\INCLUDE\TYPE_TRAITS
C:\PROGRAM FILES (X86)\WINDOWS KITS\10\INCLUDE\10.0.10240.0\UCRT\MALLOC.H
E:\PROGRAMS\MICROSOFT VISUAL STUDIO 14.0\VC\INCLUDE\VCRUNTIME_EXCEPTION.H
E:\PROGRAMS\MICROSOFT VISUAL STUDIO 14.0\VC\INCLUDE\EH.H
C:\PROGRAM FILES (X86)\WINDOWS KITS\10\INCLUDE\10.0.10240.0\UCRT\CORECRT_TERMINATE.H
E:\PROGRAMS\MICROSOFT VISUAL STUDIO 14.0\VC\INCLUDE\VCRUNTIME_NEW.H
E:\PROGRAMS\MICROSOFT VISUAL STUDIO 14.0\VC\INCLUDE\XUTILITY
E:\PROGRAMS\MICROSOFT VISUAL STUDIO 14.0\VC\INCLUDE\UTILITY
E:\PROGRAMS\MICROSOFT VISUAL STUDIO 14.0\VC\INCLUDE\IOSFWD
E:\PROGRAMS\MICROSOFT VISUAL STUDIO 14.0\VC\INCLUDE\CSTDIO
C:\PROGRAM FILES (X86)\WINDOWS KITS\10\INCLUDE\10.0.10240.0\UCRT\STDIO.H
E:\PROGRAMS\MICROSOFT VISUAL STUDIO 14.0\VC\INCLUDE\CSTRING
C:\PROGRAM FILES (X86)\WINDOWS KITS\10\INCLUDE\10.0.10240.0\UCRT\STRING.H
C:\PROGRAM FILES (X86)\WINDOWS KITS\10\INCLUDE\10.0.10240.0\UCRT\CORECRT_MEMORY.H
C:\PROGRAM FILES (X86)\WINDOWS KITS\10\INCLUDE\10.0.10240.0\UCRT\CRTDBG.H
E:\PROGRAMS\MICROSOFT VISUAL STUDIO 14.0\VC\INCLUDE\VCRUNTIME_NEW_DEBUG.H
E:\PROGRAMS\MICROSOFT VISUAL STUDIO 14.0\VC\INCLUDE\XATOMIC0.H
E:\PROGRAMS\MICROSOFT VISUAL STUDIO 14.0\VC\INCLUDE\INTRIN.H
E:\PROGRAMS\MICROSOFT VISUAL STUDIO 14.0\VC\INCLUDE\SETJMP.H
E:\PROGRAMS\MICROSOFT VISUAL STUDIO 14.0\VC\INCLUDE\IMMINTRIN.H
E:\PROGRAMS\MICROSOFT VISUAL STUDIO 14.0\VC\INCLUDE\WMMINTRIN.H
E:\PROGRAMS\MICROSOFT VISUAL STUDIO 14.0\VC\INCLUDE\NMMINTRIN.H
E:\PROGRAMS\MICROSOFT VISUAL STUDIO 14.0\VC\INCLUDE\SMMINTRIN.H
E:\PROGRAMS\MICROSOFT VISUAL STUDIO 14.0\VC\INCLUDE\TMMINTRIN.H
E:\PROGRAMS\MICROSOFT VISUAL STUDIO 14.0\VC\INCLUDE\PMMINTRIN.H
E:\PROGRAMS\MICROSOFT VISUAL STUDIO 14.0\VC\INCLUDE\EMMINTRIN.H
E:\PROGRAMS\MICROSOFT VISUAL STUDIO 14.0\VC\INCLUDE\XMMINTRIN.H
E:\PROGRAMS\MICROSOFT VISUAL STUDIO 14.0\VC\INCLUDE\MMINTRIN.H
E:\PROGRAMS\MICROSOFT VISUAL STUDIO 14.0\VC\INCLUDE\AMMINTRIN.H
E:\PROGRAMS\MICROSOFT VISUAL STUDIO 14.0\VC\INCLUDE\MM3DNOW.H
E:\PROGRAMS\MICROSOFT VISUAL STUDIO 14.0\VC\INCLUDE\STDEXCEPT
E:\PROGRAMS\MICROSOFT VISUAL STUDIO 14.0\VC\INCLUDE\XSTRING
E:\PROGRAMS\MICROSOFT VISUAL STUDIO 14.0\VC\INCLUDE\VECTOR
E:\PROGRAMS\MICROSOFT VISUAL STUDIO 14.0\VC\INCLUDE\RANDOM
E:\PROGRAMS\MICROSOFT VISUAL STUDIO 14.0\VC\INCLUDE\ISTREAM
E:\PROGRAMS\MICROSOFT VISUAL STUDIO 14.0\VC\INCLUDE\OSTREAM
E:\PROGRAMS\MICROSOFT VISUAL STUDIO 14.0\VC\INCLUDE\IOS
E:\PROGRAMS\MICROSOFT VISUAL STUDIO 14.0\VC\INCLUDE\XLOCNUM
E:\PROGRAMS\MICROSOFT VISUAL STUDIO 14.0\VC\INCLUDE\STREAMBUF
E:\PROGRAMS\MICROSOFT VISUAL STUDIO 14.0\VC\INCLUDE\XIOSBASE
E:\PROGRAMS\MICROSOFT VISUAL STUDIO 14.0\VC\INCLUDE\XLOCALE
E:\PROGRAMS\MICROSOFT VISUAL STUDIO 14.0\VC\INCLUDE\TYPEINFO
E:\PROGRAMS\MICROSOFT VISUAL STUDIO 14.0\VC\INCLUDE\VCRUNTIME_TYPEINFO.H
E:\PROGRAMS\MICROSOFT VISUAL STUDIO 14.0\VC\INCLUDE\XLOCINFO
E:\PROGRAMS\MICROSOFT VISUAL STUDIO 14.0\VC\INCLUDE\XLOCINFO.H
C:\PROGRAM FILES (X86)\WINDOWS KITS\10\INCLUDE\10.0.10240.0\UCRT\CTYPE.H
C:\PROGRAM FILES (X86)\WINDOWS KITS\10\INCLUDE\10.0.10240.0\UCRT\LOCALE.H
E:\PROGRAMS\MICROSOFT VISUAL STUDIO 14.0\VC\INCLUDE\XFACET
E:\PROGRAMS\MICROSOFT VISUAL STUDIO 14.0\VC\INCLUDE\SYSTEM_ERROR
E:\PROGRAMS\MICROSOFT VISUAL STUDIO 14.0\VC\INCLUDE\CERRNO
C:\PROGRAM FILES (X86)\WINDOWS KITS\10\INCLUDE\10.0.10240.0\UCRT\SHARE.H
E:\PROGRAMS\MICROSOFT VISUAL STUDIO 14.0\VC\INCLUDE\IOSTREAM
E:\PROGRAMS\MICROSOFT VISUAL STUDIO 14.0\VC\INCLUDE\ALGORITHM
