\relax 
\catcode `"\active 
\babel@aux{dutch}{}
\@writefile{loe}{\contentsline {opghand}{\numberline {\let \autodot \@empty }Exercise\thmtformatoptarg {4.6.25}}{1}}
\@writefile{loe}{\contentsline {opghand}{\numberline {\let \autodot \@empty }Exercise\thmtformatoptarg {5.5.2}}{4}}
