\relax 
\catcode `"\active 
\select@language{dutch}
\@writefile{toc}{\select@language{dutch}}
\@writefile{lof}{\select@language{dutch}}
\@writefile{lot}{\select@language{dutch}}
\@writefile{toc}{\contentsline {section}{\numberline {1}De reden van het bewijzen}{2}}
\@writefile{toc}{\contentsline {section}{\numberline {2}Wiskundeonderzoek}{2}}
\citation{polya54}
\citation{hardy40}
\citation{haimo95}
\@writefile{toc}{\contentsline {section}{\numberline {3}Onderwijs}{3}}
\citation{hersch15}
\citation{dijkgraaf99}
\citation{hersch15}
\citation{bundy11}
\citation{wilder44}
\@writefile{toc}{\contentsline {section}{\numberline {4}Toepassingen}{4}}
\@writefile{toc}{\contentsline {section}{\numberline {5}Een blik in de toekomst}{4}}
\citation{*}
\bibstyle{plainnat}
\bibdata{bronnen}
\@writefile{toc}{\contentsline {section}{\numberline {6}Conclusie}{5}}
