\select@language {dutch}
\contentsline {section}{\numberline {1}De reden van het bewijzen}{2}
\contentsline {section}{\numberline {2}Wiskundeonderzoek}{2}
\contentsline {section}{\numberline {3}Onderwijs}{3}
\contentsline {section}{\numberline {4}Toepassingen}{4}
\contentsline {section}{\numberline {5}Een blik in de toekomst}{4}
\contentsline {section}{\numberline {6}Conclusie}{5}
