^F:\WOUTER\MIJN DOCUMENTEN\LAPTOPSYNC\BACHELORPROJECT\C++\GRAPH COLOURING APPROXIMATOR\GRAPH COLOURING APPROXIMATOR\GRAPH COLOURING APPROXIMATOR.CPP
/c /ZI /nologo /W3 /WX- /Od /D _DEBUG /D _CONSOLE /D _UNICODE /D UNICODE /Gm /EHsc /RTC1 /MDd /GS /fp:precise /Zc:wchar_t /Zc:forScope /Zc:inline /Fo"X64\DEBUG\\" /Fd"X64\DEBUG\VC140.PDB" /Gd /TP F:\WOUTER\MIJN DOCUMENTEN\LAPTOPSYNC\BACHELORPROJECT\C++\GRAPH COLOURING APPROXIMATOR\GRAPH COLOURING APPROXIMATOR\GRAPH COLOURING APPROXIMATOR.CPP
^F:\WOUTER\MIJN DOCUMENTEN\LAPTOPSYNC\BACHELORPROJECT\C++\GRAPH COLOURING APPROXIMATOR\GRAPH COLOURING APPROXIMATOR\STDAFX.CPP
/c /ZI /nologo /W3 /WX- /Od /D _DEBUG /D _CONSOLE /D _UNICODE /D UNICODE /Gm /EHsc /RTC1 /MDd /GS /fp:precise /Zc:wchar_t /Zc:forScope /Zc:inline /Fo"X64\DEBUG\\" /Fd"X64\DEBUG\VC140.PDB" /Gd /TP F:\WOUTER\MIJN DOCUMENTEN\LAPTOPSYNC\BACHELORPROJECT\C++\GRAPH COLOURING APPROXIMATOR\GRAPH COLOURING APPROXIMATOR\STDAFX.CPP
