^F:\WOUTER\MIJN DOCUMENTEN\LAPTOPSYNC\BACHELORPROJECT\C++\GRAPH COLOURING APPROXIMATOR\GRAPH COLOURING APPROXIMATOR\GRAPH COLOURING APPROXIMATOR.CPP|F:\WOUTER\MIJN DOCUMENTEN\LAPTOPSYNC\BACHELORPROJECT\C++\GRAPH COLOURING APPROXIMATOR\GRAPH COLOURING APPROXIMATOR\STDAFX.CPP
F:\WOUTER\MIJN DOCUMENTEN\LAPTOPSYNC\BACHELORPROJECT\C++\GRAPH COLOURING APPROXIMATOR\GRAPH COLOURING APPROXIMATOR\X64\DEBUG\VC140.PDB
F:\WOUTER\MIJN DOCUMENTEN\LAPTOPSYNC\BACHELORPROJECT\C++\GRAPH COLOURING APPROXIMATOR\GRAPH COLOURING APPROXIMATOR\X64\DEBUG\VC140.IDB
F:\WOUTER\MIJN DOCUMENTEN\LAPTOPSYNC\BACHELORPROJECT\C++\GRAPH COLOURING APPROXIMATOR\GRAPH COLOURING APPROXIMATOR\X64\DEBUG\STDAFX.OBJ
^F:\WOUTER\MIJN DOCUMENTEN\LAPTOPSYNC\BACHELORPROJECT\C++\GRAPH COLOURING APPROXIMATOR\GRAPH COLOURING APPROXIMATOR\GRAPH COLOURING APPROXIMATOR.CPP
F:\WOUTER\MIJN DOCUMENTEN\LAPTOPSYNC\BACHELORPROJECT\C++\GRAPH COLOURING APPROXIMATOR\GRAPH COLOURING APPROXIMATOR\X64\DEBUG\VC140.PDB
F:\WOUTER\MIJN DOCUMENTEN\LAPTOPSYNC\BACHELORPROJECT\C++\GRAPH COLOURING APPROXIMATOR\GRAPH COLOURING APPROXIMATOR\X64\DEBUG\VC140.IDB
F:\WOUTER\MIJN DOCUMENTEN\LAPTOPSYNC\BACHELORPROJECT\C++\GRAPH COLOURING APPROXIMATOR\GRAPH COLOURING APPROXIMATOR\X64\DEBUG\GRAPH COLOURING APPROXIMATOR.OBJ
^F:\WOUTER\MIJN DOCUMENTEN\LAPTOPSYNC\BACHELORPROJECT\C++\GRAPH COLOURING APPROXIMATOR\GRAPH COLOURING APPROXIMATOR\STDAFX.CPP
F:\WOUTER\MIJN DOCUMENTEN\LAPTOPSYNC\BACHELORPROJECT\C++\GRAPH COLOURING APPROXIMATOR\GRAPH COLOURING APPROXIMATOR\X64\DEBUG\VC140.PDB
