^F:\WOUTER\MIJN DOCUMENTEN\LAPTOPSYNC\BACHELORPROJECT\C++\GRAPH COLOURING APPROXIMATOR\GRAPH COLOURING APPROXIMATOR\X64\DEBUG\GRAPH COLOURING APPROXIMATOR.OBJ|F:\WOUTER\MIJN DOCUMENTEN\LAPTOPSYNC\BACHELORPROJECT\C++\GRAPH COLOURING APPROXIMATOR\GRAPH COLOURING APPROXIMATOR\X64\DEBUG\STDAFX.OBJ
F:\WOUTER\MIJN DOCUMENTEN\LAPTOPSYNC\BACHELORPROJECT\C++\GRAPH COLOURING APPROXIMATOR\X64\DEBUG\GRAPH COLOURING APPROXIMATOR.ILK
F:\WOUTER\MIJN DOCUMENTEN\LAPTOPSYNC\BACHELORPROJECT\C++\GRAPH COLOURING APPROXIMATOR\X64\DEBUG\GRAPH COLOURING APPROXIMATOR.EXE
F:\WOUTER\MIJN DOCUMENTEN\LAPTOPSYNC\BACHELORPROJECT\C++\GRAPH COLOURING APPROXIMATOR\X64\DEBUG\GRAPH COLOURING APPROXIMATOR.PDB
